Length-frequency
…
## # A tibble: 3 x 2
##   soak_time_fct     n
## * <fct>         <int>
## 1 long             35
## 2 medium          124
## 3 short           148

## # A tibble: 3 x 2
##   soak_time_fct mean_length
## * <fct>               <dbl>
## 1 long                 26.0
## 2 medium               25.9
## 3 short                22.0

## # A tibble: 56 x 7
##    common     short medium  long prop_fish_short prop_fish_medium prop_fish_long
##    <chr>      <int>  <int> <int>           <dbl>            <dbl>          <dbl>
##  1 Doctorfish   420    192    41           25.5            15.7           12.2  
##  2 Blue tang    340     89    35           20.7             7.29          10.4  
##  3 Whitespot   213    136    34           12.9            11.1           10.1  
##  4 Honeycomb    76    131    63            4.62           10.7           18.8  
##  5 Squirrelf    72     44    11            4.37            3.60           3.28 
##  6 Spotfin b    49      6     1            2.98            0.491          0.299
##  7 French gr    45     38    11            2.73            3.11           3.28 
##  8 Rock beau    43     14     0            2.61            1.15           0    
##  9 Banded bu    37      6     2            2.25            0.491          0.597
## 10 Lane snap    27     25    16            1.64            2.05           4.78 
## #  with 46 more rows
…
