Length-frequency
…
## # A tibble: 3 x 2
##   soak_time_fct     n
##   <fct>         <int>
## 1 long             35
## 2 medium          124
## 3 short           148

## # A tibble: 3 x 2
##   soak_time_fct mean_length
##   <fct>               <dbl>
## 1 long                 26.0
## 2 medium               25.9
## 3 short                22.0

## # A tibble: 56 x 7
##    common short medium  long prop_fish_short prop_fish_medium
##    <chr>  <int>  <int> <int>           <dbl>            <dbl>
##  1 Docto   420    192    41           25.5            15.7  
##  2 Blue    340     89    35           20.7             7.29 
##  3 White   213    136    34           12.9            11.1  
##  4 Honey    76    131    63            4.62           10.7  
##  5 Squir    72     44    11            4.37            3.60 
##  6 Spotf    49      6     1            2.98            0.491
##  7 Frenc    45     38    11            2.73            3.11 
##  8 Rock     43     14     0            2.61            1.15 
##  9 Bande    37      6     2            2.25            0.491
## 10 Lane     27     25    16            1.64            2.05 
## #  with 46 more rows, and 1 more variable: prop_fish_long <dbl>
