Species and family specific analysis
…
## [1] "Sparidae"
## 
##  2-sample test for equality of proportions with continuity
##  correction
## 
## data:  family_data$no_fish out of trap_totals
## X-squared = 0.08764, df = 1, p-value = 0.7672
## alternative hypothesis: two.sided
## 95 percent confidence interval:
##  -0.013349788  0.008575317
## sample estimates:
##     prop 1     prop 2 
## 0.01438240 0.01676964

## # A tibble: 55 x 2
##    family       common           
##    <chr>        <chr>            
##  1 Acanthuridae Blue tang        
##  2 Acanthuridae Doctorfish       
##  3 Balistidae   Black durgon     
##  4 Balistidae   Ocean triggerfish
##  5 Balistidae   Queen triggerfish
##  6 Bothidae     Peacock flounder 
##  7 Carangidae   Almaco jack      
##  8 Carangidae   Greater amberjack
##  9 Carangidae   Horse-Eye jack   
## 10 Carangidae   Yellow jack      
## #  with 45 more rows
…
